C:\Users\Miha\Documents\NetBeansProjects\4\mavenproject1\src\main\java\com\movies\model\Category.java
C:\Users\Miha\Documents\NetBeansProjects\4\mavenproject1\src\main\java\com\movies\model\MovieDao.java
C:\Users\Miha\Documents\NetBeansProjects\4\mavenproject1\src\main\java\com\movies\model\CategoryDao.java
C:\Users\Miha\Documents\NetBeansProjects\4\mavenproject1\src\main\java\com\movies\controller\SiteController.java
C:\Users\Miha\Documents\NetBeansProjects\4\mavenproject1\src\main\java\com\movies\model\Movie.java
